<svg xmlns="http://www.w3.org/2000/svg" width="22.672" height="22.659" viewBox="0 0 22.672 22.659">
  <g id="_164-search" data-name="164-search" transform="translate(0 -0.012)">
    <path id="Path_111" data-name="Path 111" d="M12.32,20.108a9.665,9.665,0,0,1,10.823-9.585,9.657,9.657,0,1,0-4.662,18.59A9.653,9.653,0,0,1,12.32,20.108Zm0,0" transform="translate(-9.413 -9.284)" fill="rgba(4,0,61,0.15)"/>
    <path id="Path_112" data-name="Path 112" d="M17.875,17.061a10.419,10.419,0,1,0-.825.814L21.676,22.5a.572.572,0,0,0,.413.168A.6.6,0,0,0,22.5,22.5a.579.579,0,0,0,0-.82Zm-7.638,2.261a9.077,9.077,0,1,1,9.074-9.08A9.087,9.087,0,0,1,10.237,19.322Zm0,0" fill="#fff"/>
  </g>
</svg>
